﻿[
  {
    "BookingId": 1,
    "RoomNumber": 1,
    "CheckInDate": "2023-02-01",
    "CheckOutDate": "2023-02-03",
    "CustomerName": "Nguyen Van A",
    "TotalAmountPaid": 150.0,
    "Services": [
      {
        "Name": "Mì tôm",
        "Quantity": 2,
        "Price": 20.00
      },
      {
        "Name": "Bia",
        "Quantity": 1,
        "Price": 10.00
      }
    ]
  },
  {
    "BookingId": 2,
    "RoomNumber": 1,
    "CheckInDate": "2023-02-02",
    "CheckOutDate": "2023-02-04",
    "CustomerName": "Tran Thi B",
    "TotalAmountPaid": 200.0,
    "Services": [
      {
        "Name": "Nước suối",
        "Quantity": 2,
        "Price": 20.00
      }
    ]
  },
  {
    "BookingId": 3,
    "RoomNumber": 1,
    "CheckInDate": "2023-02-03",
    "CheckOutDate": "2023-02-05",
    "CustomerName": "Le Van C",
    "TotalAmountPaid": 180.0,
    "Services": [
      {
        "Name": "Nước suối",
        "Quantity": 2,
        "Price": 20.00
      }
    ]
  },
  {
    "BookingId": 4,
    "RoomNumber": 2,
    "CheckInDate": "2023-02-04",
    "CheckOutDate": "2023-02-06",
    "CustomerName": "Pham Thi D",
    "TotalAmountPaid": 220.0,
    "Services": [
      {
        "Name": "Nước suối",
        "Quantity": 15,
        "Price": 20.00
      }
    ]
  },
  {
    "BookingId": 5,
    "RoomNumber": 2,
    "CheckInDate": "2023-02-05",
    "CheckOutDate": "2023-02-07",
    "CustomerName": "Vo Van E",
    "TotalAmountPaid": 190.0,
    "Services": [
      {
        "Name": "Nước suối",
        "Quantity": 2,
        "Price": 20.00
      }
    ]
  },
  {
    "BookingId": 6,
    "RoomNumber": 2,
    "CheckInDate": "2023-02-06",
    "CheckOutDate": "2023-02-08",
    "CustomerName": "Hoang Thi F",
    "TotalAmountPaid": 210.0,
    "Services": [
      {
        "Name": "Nước suối",
        "Quantity": 20,
        "Price": 20.00
      }
    ]
  },
  {
    "BookingId": 7,
    "RoomNumber": 3,
    "CheckInDate": "2023-02-07",
    "CheckOutDate": "2023-02-09",
    "CustomerName": "Nguyen Van G",
    "TotalAmountPaid": 180.0,
    "Services": [
      {
        "Name": "Nước suối",
        "Quantity": 12,
        "Price": 20.00
      }
    ]
  },
  {
    "BookingId": 8,
    "RoomNumber": 3,
    "CheckInDate": "2023-02-08",
    "CheckOutDate": "2023-02-10",
    "CustomerName": "Tran Van H",
    "TotalAmountPaid": 250.0,
    "Services": [
      {
        "Name": "Nước Mía",
        "Quantity": 10,
        "Price": 20.00
      }
    ]
  },
  {
    "BookingId": 9,
    "RoomNumber": 3,
    "CheckInDate": "2023-02-09",
    "CheckOutDate": "2023-02-11",
    "CustomerName": "Le Thi I",
    "TotalAmountPaid": 200.0,
    "Services": [
      {
        "Name": "Bia",
        "Quantity": 12,
        "Price": 20.00
      }
    ]
  },
  {
    "BookingId": 10,
    "RoomNumber": 4,
    "CheckInDate": "2023-02-10",
    "CheckOutDate": "2023-02-12",
    "CustomerName": "Pham Van K",
    "TotalAmountPaid": 230.0,
    "Services": [
      {
        "Name": "Nước suối",
        "Quantity": 2,
        "Price": 20.00
      }
    ]
  }
]
